level_3/lab03/waveform.vcd
$version Generated by VerilatedVcd $end
$date Tue Nov 12 18:25:35 2024
 $end
$timescale   1ps $end

 $scope module TOP $end
  $var wire  1 W clk $end
  $var wire 16 Y din [15:0] $end
  $var wire  1 Z done $end
  $var wire 16 [ dout(0) [15:0] $end
  $var wire 16 \ dout(1) [15:0] $end
  $var wire 16 e dout(10) [15:0] $end
  $var wire 16 ] dout(2) [15:0] $end
  $var wire 16 ^ dout(3) [15:0] $end
  $var wire 16 _ dout(4) [15:0] $end
  $var wire 16 ` dout(5) [15:0] $end
  $var wire 16 a dout(6) [15:0] $end
  $var wire 16 b dout(7) [15:0] $end
  $var wire 16 c dout(8) [15:0] $end
  $var wire 16 d dout(9) [15:0] $end
  $var wire 16 h init_data(0) [15:0] $end
  $var wire 16 i init_data(1) [15:0] $end
  $var wire 16 j init_data(2) [15:0] $end
  $var wire 16 k init_data(3) [15:0] $end
  $var wire 16 l init_data(4) [15:0] $end
  $var wire 16 m init_data(5) [15:0] $end
  $var wire 16 n init_data(6) [15:0] $end
  $var wire 16 o init_data(7) [15:0] $end
  $var wire  1 g init_en $end
  $var wire  1 X reset $end
  $var wire  1 f run $end
  $scope module Bitty $end
   $var wire 16 3 alu_out [15:0] $end
   $var wire  4 / alu_sel [3:0] $end
   $var wire  1 T! carry_in $end
   $var wire  1 2 carry_out $end
   $var wire  1 W clk $end
   $var wire  1 3! compare $end
   $var wire 16 { d_in(0) [15:0] $end
   $var wire 16 | d_in(1) [15:0] $end
   $var wire 16 '! d_in(10) [15:0] $end
   $var wire 16 } d_in(2) [15:0] $end
   $var wire 16 ~ d_in(3) [15:0] $end
   $var wire 16 !! d_in(4) [15:0] $end
   $var wire 16 "! d_in(5) [15:0] $end
   $var wire 16 #! d_in(6) [15:0] $end
   $var wire 16 $! d_in(7) [15:0] $end
   $var wire 16 %! d_in(8) [15:0] $end
   $var wire 16 &! d_in(9) [15:0] $end
   $var wire 16 p d_out(0) [15:0] $end
   $var wire 16 q d_out(1) [15:0] $end
   $var wire 16 z d_out(10) [15:0] $end
   $var wire 16 r d_out(2) [15:0] $end
   $var wire 16 s d_out(3) [15:0] $end
   $var wire 16 t d_out(4) [15:0] $end
   $var wire 16 u d_out(5) [15:0] $end
   $var wire 16 v d_out(6) [15:0] $end
   $var wire 16 w d_out(7) [15:0] $end
   $var wire 16 x d_out(8) [15:0] $end
   $var wire 16 y d_out(9) [15:0] $end
   $var wire 16 Y din [15:0] $end
   $var wire  1 # done $end
   $var wire 16 $ dout(0) [15:0] $end
   $var wire 16 % dout(1) [15:0] $end
   $var wire 16 . dout(10) [15:0] $end
   $var wire 16 & dout(2) [15:0] $end
   $var wire 16 ' dout(3) [15:0] $end
   $var wire 16 ( dout(4) [15:0] $end
   $var wire 16 ) dout(5) [15:0] $end
   $var wire 16 * dout(6) [15:0] $end
   $var wire 16 + dout(7) [15:0] $end
   $var wire 16 , dout(8) [15:0] $end
   $var wire 16 - dout(9) [15:0] $end
   $var wire 16 O init_data(0) [15:0] $end
   $var wire 16 P init_data(1) [15:0] $end
   $var wire 16 Q init_data(2) [15:0] $end
   $var wire 16 R init_data(3) [15:0] $end
   $var wire 16 S init_data(4) [15:0] $end
   $var wire 16 T init_data(5) [15:0] $end
   $var wire 16 U init_data(6) [15:0] $end
   $var wire 16 V init_data(7) [15:0] $end
   $var wire  1 g init_en $end
   $var wire  1 1 mode $end
   $var wire 16 4 mux_out [15:0] $end
   $var wire  3 0 mux_sel [2:0] $end
   $var wire  1 (! reg_en(0) $end
   $var wire  1 )! reg_en(1) $end
   $var wire  1 2! reg_en(10) $end
   $var wire  1 *! reg_en(2) $end
   $var wire  1 +! reg_en(3) $end
   $var wire  1 ,! reg_en(4) $end
   $var wire  1 -! reg_en(5) $end
   $var wire  1 .! reg_en(6) $end
   $var wire  1 /! reg_en(7) $end
   $var wire  1 0! reg_en(8) $end
   $var wire  1 1! reg_en(9) $end
   $var wire  1 X reset $end
   $var wire  1 f run $end
   $scope module ControlUnit1 $end
    $var wire  4 / alu_sel [3:0] $end
    $var wire  1 W clk $end
    $var wire  1 # done $end
    $var wire  1 = en_0 $end
    $var wire  1 > en_1 $end
    $var wire  1 ? en_2 $end
    $var wire  1 @ en_3 $end
    $var wire  1 A en_4 $end
    $var wire  1 B en_5 $end
    $var wire  1 C en_6 $end
    $var wire  1 D en_7 $end
    $var wire  1 < en_c $end
    $var wire  1 E en_inst $end
    $var wire  1 ; en_s $end
    $var wire 16 B! instruction [15:0] $end
    $var wire  1 1 mode $end
    $var wire  3 0 mux_sel [2:0] $end
    $var wire  2 C! next_state [1:0] $end
    $var wire  1 X reset $end
    $var wire  1 f run $end
    $var wire  2 F state [1:0] $end
   $upscope $end
   $scope module alu1 $end
    $var wire 16 3 alu_out [15:0] $end
    $var wire  1 : arithmetic_carry_out $end
    $var wire  1 U! carry_in $end
    $var wire  1 2 carry_out $end
    $var wire  1 3! compare $end
    $var wire 16 A! in_a [15:0] $end
    $var wire 16 4 in_b [15:0] $end
    $var wire  1 1 mode $end
    $var wire  4 / sel [3:0] $end
    $var wire 16 8 temp_a_out [15:0] $end
    $var wire 16 9 temp_l_out [15:0] $end
    $scope module myArithUnit $end
     $var wire 16 8 alu_out [15:0] $end
     $var wire  1 U! carry_in $end
     $var wire  1 : carry_out $end
     $var wire 16 A! in_a [15:0] $end
     $var wire 16 4 in_b [15:0] $end
     $var wire  4 / sel [3:0] $end
    $upscope $end
    $scope module myLogicUnit $end
     $var wire 16 9 alu_out [15:0] $end
     $var wire 16 A! in_a [15:0] $end
     $var wire 16 4 in_b [15:0] $end
     $var wire  4 / sel [3:0] $end
    $upscope $end
   $upscope $end
   $scope module mux1 $end
    $var wire 16 4 out [15:0] $end
    $var wire 16 9! reg0 [15:0] $end
    $var wire 16 :! reg1 [15:0] $end
    $var wire 16 ;! reg2 [15:0] $end
    $var wire 16 <! reg3 [15:0] $end
    $var wire 16 =! reg4 [15:0] $end
    $var wire 16 >! reg5 [15:0] $end
    $var wire 16 ?! reg6 [15:0] $end
    $var wire 16 @! reg7 [15:0] $end
    $var wire  3 0 sel [2:0] $end
   $upscope $end
   $scope module regC $end
    $var wire  1 W clk $end
    $var wire  1 4! enable $end
    $var wire 16 5! in [15:0] $end
    $var wire 16 5 out [15:0] $end
    $var wire  1 X reset $end
   $upscope $end
   $scope module regS $end
    $var wire  1 W clk $end
    $var wire  1 6! enable $end
    $var wire 16 7! in [15:0] $end
    $var wire 16 6 out [15:0] $end
    $var wire  1 X reset $end
   $upscope $end
   $scope module reg_inst $end
    $var wire  1 W clk $end
    $var wire  1 8! enable $end
    $var wire 16 Y in [15:0] $end
    $var wire 16 7 out [15:0] $end
    $var wire  1 X reset $end
   $upscope $end
   $scope module reg_inst_block(2) $end
    $scope module regN $end
     $var wire  1 W clk $end
     $var wire  1 D! enable $end
     $var wire 16 E! in [15:0] $end
     $var wire 16 G out [15:0] $end
     $var wire  1 X reset $end
    $upscope $end
   $upscope $end
   $scope module reg_inst_block(3) $end
    $scope module regN $end
     $var wire  1 W clk $end
     $var wire  1 F! enable $end
     $var wire 16 G! in [15:0] $end
     $var wire 16 H out [15:0] $end
     $var wire  1 X reset $end
    $upscope $end
   $upscope $end
   $scope module reg_inst_block(4) $end
    $scope module regN $end
     $var wire  1 W clk $end
     $var wire  1 H! enable $end
     $var wire 16 I! in [15:0] $end
     $var wire 16 I out [15:0] $end
     $var wire  1 X reset $end
    $upscope $end
   $upscope $end
   $scope module reg_inst_block(5) $end
    $scope module regN $end
     $var wire  1 W clk $end
     $var wire  1 J! enable $end
     $var wire 16 K! in [15:0] $end
     $var wire 16 J out [15:0] $end
     $var wire  1 X reset $end
    $upscope $end
   $upscope $end
   $scope module reg_inst_block(6) $end
    $scope module regN $end
     $var wire  1 W clk $end
     $var wire  1 L! enable $end
     $var wire 16 M! in [15:0] $end
     $var wire 16 K out [15:0] $end
     $var wire  1 X reset $end
    $upscope $end
   $upscope $end
   $scope module reg_inst_block(7) $end
    $scope module regN $end
     $var wire  1 W clk $end
     $var wire  1 N! enable $end
     $var wire 16 O! in [15:0] $end
     $var wire 16 L out [15:0] $end
     $var wire  1 X reset $end
    $upscope $end
   $upscope $end
   $scope module reg_inst_block(8) $end
    $scope module regN $end
     $var wire  1 W clk $end
     $var wire  1 P! enable $end
     $var wire 16 Q! in [15:0] $end
     $var wire 16 M out [15:0] $end
     $var wire  1 X reset $end
    $upscope $end
   $upscope $end
   $scope module reg_inst_block(9) $end
    $scope module regN $end
     $var wire  1 W clk $end
     $var wire  1 R! enable $end
     $var wire 16 S! in [15:0] $end
     $var wire 16 N out [15:0] $end
     $var wire  1 X reset $end
    $upscope $end
   $upscope $end
  $upscope $end
 $upscope $end
$enddefinitions $end


#0
0#
b0000000000000000 $
b0000000000000000 %
b0000000000000000 &
b0000000000000000 '
b0000000000000000 (
b0000000000000000 )
b0000000000000000 *
b0000000000000000 +
b0000000000000000 ,
b0000000000000000 -
b0000000000000000 .
b0000 /
b000 0
01
02
b0000000000000000 3
b0000000000000000 4
b0000000000000000 5
b0000000000000000 6
b0000000000000000 7
b0000000000000000 8
b1111111111111111 9
0:
1;
0<
0=
0>
0?
0@
0A
0B
0C
0D
0E
b00 F
b0000000000000000 G
b0000000000000000 H
b0000000000000000 I
b0000000000000000 J
b0000000000000000 K
b0000000000000000 L
b0000000000000000 M
b0000000000000000 N
b0000000000000000 O
b0000000000000000 P
b0000000000000000 Q
b0000000000000000 R
b0000000000000000 S
b0000000000000000 T
b0000000000000000 U
b0000000000000000 V
0W
1X
b0000000000000000 Y
0Z
b0000000000000000 [
b0000000000000000 \
b0000000000000000 ]
b0000000000000000 ^
b0000000000000000 _
b0000000000000000 `
b0000000000000000 a
b0000000000000000 b
b0000000000000000 c
b0000000000000000 d
b0000000000000000 e
0f
0g
b0000000000000000 h
b0000000000000000 i
b0000000000000000 j
b0000000000000000 k
b0000000000000000 l
b0000000000000000 m
b0000000000000000 n
b0000000000000000 o
b0000000000000000 p
b0000000000000000 q
b0000000000000000 r
b0000000000000000 s
b0000000000000000 t
b0000000000000000 u
b0000000000000000 v
b0000000000000000 w
b0000000000000000 x
b0000000000000000 y
b0000000000000000 z
b0000000000000000 {
b0000000000000000 |
b0000000000000000 }
b0000000000000000 ~
b0000000000000000 !!
b0000000000000000 "!
b0000000000000000 #!
b0000000000000000 $!
b0000000000000000 %!
b0000000000000000 &!
b0000000000000000 '!
1(!
0)!
0*!
0+!
0,!
0-!
0.!
0/!
00!
01!
02!
13!
04!
b0000000000000000 5!
16!
b0000000000000000 7!
08!
b0000000000000000 9!
b0000000000000000 :!
b0000000000000000 ;!
b0000000000000000 <!
b0000000000000000 =!
b0000000000000000 >!
b0000000000000000 ?!
b0000000000000000 @!
b0000000000000000 A!
b0000000000000000 B!
b01 C!
0D!
b0000000000000000 E!
0F!
b0000000000000000 G!
0H!
b0000000000000000 I!
0J!
b0000000000000000 K!
0L!
b0000000000000000 M!
0N!
b0000000000000000 O!
0P!
b0000000000000000 Q!
0R!
b0000000000000000 S!
0T!
0U!
#1
1W
#2
0W
0X
#3
0;
1<
b01 F
b0000000000000001 O
b0000000000000010 P
b0000000000000011 Q
b0000000000000100 R
b0000000000000101 S
b0000000000000110 T
b0000000000000111 U
b0000000000001000 V
1W
1g
b0000000000000001 h
b0000000000000010 i
b0000000000000011 j
b0000000000000100 k
b0000000000000101 l
b0000000000000110 m
b0000000000000111 n
b0000000000001000 o
0(!
1)!
14!
06!
b10 C!
1D!
b0000000000000001 E!
1F!
b0000000000000010 G!
1H!
b0000000000000011 I!
1J!
b0000000000000100 K!
1L!
b0000000000000101 M!
1N!
b0000000000000110 O!
1P!
b0000000000000111 Q!
1R!
b0000000000001000 S!
#4
0W
#5
1#
0<
1=
1E
b10 F
1W
1Z
0g
0)!
1*!
12!
04!
18!
b11 C!
b0000000000000000 E!
0F!
b0000000000000000 G!
0H!
b0000000000000000 I!
0J!
b0000000000000000 K!
0L!
b0000000000000000 M!
0N!
b0000000000000000 O!
0P!
b0000000000000000 Q!
0R!
b0000000000000000 S!
#6
0W
b0001100000000100 Y
1f
#7
0#
b0001100000000100 .
b0001100000000100 7
0=
b11 F
1W
0Z
b0001100000000100 e
b0001100000000100 z
0*!
b0001100000000100 B!
b00 C!
0D!
#8
0W
#9
1;
0E
b00 F
1W
1(!
02!
16!
08!
b01 C!
#10
0W
#11
b110 0
11
b1111111111111111 3
0;
1<
b01 F
1W
b1111111111111111 |
b1111111111111111 }
b1111111111111111 ~
b1111111111111111 !!
b1111111111111111 "!
b1111111111111111 #!
b1111111111111111 $!
b1111111111111111 %!
b1111111111111111 &!
0(!
1)!
14!
b1111111111111111 5!
06!
b10 C!
b1111111111111111 E!
b1111111111111111 G!
b1111111111111111 I!
b1111111111111111 K!
b1111111111111111 M!
b1111111111111111 O!
b1111111111111111 Q!
b1111111111111111 S!
#12
0W
#13
1#
b1111111111111111 %
b000 0
01
b0000000000000000 3
b1111111111111111 5
0<
1=
1E
b10 F
1W
1Z
b1111111111111111 \
b1111111111111111 q
b0000000000000000 |
b0000000000000000 }
b0000000000000000 ~
b0000000000000000 !!
b0000000000000000 "!
b0000000000000000 #!
b0000000000000000 $!
b0000000000000000 %!
b0000000000000000 &!
0)!
1*!
12!
04!
b0000000000000000 5!
18!
b11 C!
1D!
b0000000000000000 E!
b0000000000000000 G!
b0000000000000000 I!
b0000000000000000 K!
b0000000000000000 M!
b0000000000000000 O!
b0000000000000000 Q!
b0000000000000000 S!
#14
0W
#15
0#
0=
b11 F
1W
0Z
0*!
b00 C!
0D!
#16
0W
0f
b11 C!
#17
1W
#18
0W
b0001000001000000 Y
1f
b00 C!
#19
b0001000001000000 .
b0001000001000000 7
1;
0E
b00 F
1W
b0001000001000000 e
b0001000001000000 z
1(!
02!
16!
08!
b0001000001000000 B!
b01 C!
#20
0W
#21
b1000 /
b100 0
0;
1<
b01 F
1W
0(!
1)!
14!
06!
b10 C!
#22
0W
#23
1#
b0000000000000000 %
b0000 /
b000 0
b0000000000000000 5
0<
1=
1E
b10 F
1W
1Z
b0000000000000000 \
b0000000000000000 q
0)!
1*!
12!
04!
18!
b11 C!
1D!
#24
0W
#25
0#
0=
b11 F
1W
0Z
0*!
b00 C!
0D!
#26
0W
0f
b11 C!
#27
1W
#28
0W
b1000110000011100 Y
1f
b00 C!
#29
b1000110000011100 .
b100 0
b1000110000011100 7
1;
0E
b00 F
1W
b1000110000011100 e
b1000110000011100 z
1(!
02!
16!
08!
b1000110000011100 B!
b01 C!
#30
0W
#31
b0011 /
b011 0
11
b0000000000000001 8
b0000000000000000 9
1:
0;
1<
b01 F
1W
0(!
1)!
14!
06!
b10 C!
#32
0W
#33
1#
b0000 /
b000 0
01
b0000000000000000 8
b1111111111111111 9
0:
0<
1A
1E
b10 F
1W
1Z
0)!
1.!
12!
04!
18!
b11 C!
1L!
#34
0W
#35
0#
0A
b11 F
1W
0Z
0.!
b00 C!
0L!
#36
0W
0f
b11 C!
#37
1W
#38
0W
b1111010001111000 Y
1f
b00 C!
#39
b1111010001111000 .
b111 0
b1111010001111000 7
1;
0E
b00 F
1W
b1111010001111000 e
b1111010001111000 z
1(!
02!
16!
08!
b1111010001111000 B!
b01 C!
#40
0W
#41
b1111 /
b101 0
12
b1111111111111111 3
b1111111111111111 8
b0000000000000000 9
1:
0;
1<
b01 F
1W
b1111111111111111 |
b1111111111111111 }
b1111111111111111 ~
b1111111111111111 !!
b1111111111111111 "!
b1111111111111111 #!
b1111111111111111 $!
b1111111111111111 %!
b1111111111111111 &!
0(!
1)!
14!
b1111111111111111 5!
06!
b10 C!
b1111111111111111 E!
b1111111111111111 G!
b1111111111111111 I!
b1111111111111111 K!
b1111111111111111 M!
b1111111111111111 O!
b1111111111111111 Q!
b1111111111111111 S!
#42
0W
#43
1#
b1111111111111111 %
b0000 /
b000 0
02
b0000000000000000 3
b1111111111111111 5
b0000000000000000 8
b1111111111111111 9
0:
0<
1D
1E
b10 F
1W
1Z
b1111111111111111 \
b1111111111111111 q
b0000000000000000 |
b0000000000000000 }
b0000000000000000 ~
b0000000000000000 !!
b0000000000000000 "!
b0000000000000000 #!
b0000000000000000 $!
b0000000000000000 %!
b0000000000000000 &!
0)!
11!
12!
04!
b0000000000000000 5!
18!
b11 C!
b0000000000000000 E!
b0000000000000000 G!
b0000000000000000 I!
b0000000000000000 K!
b0000000000000000 M!
b0000000000000000 O!
b0000000000000000 Q!
1R!
b0000000000000000 S!
#44
0W
#45
0#
0D
b11 F
1W
0Z
01!
b00 C!
0R!
#46
0W
0f
b11 C!
#47
1W
#48
0W
b0010110000011000 Y
1f
b00 C!
#49
b0010110000011000 .
b001 0
b0010110000011000 7
1;
0E
b00 F
1W
b0010110000011000 e
b0010110000011000 z
1(!
02!
16!
08!
b0010110000011000 B!
b01 C!
#50
0W
#51
b0011 /
b011 0
12
b0000000000000001 3
b0000000000000001 8
b0000000000000000 9
1:
0;
1<
b01 F
1W
b0000000000000001 |
b0000000000000001 }
b0000000000000001 ~
b0000000000000001 !!
b0000000000000001 "!
b0000000000000001 #!
b0000000000000001 $!
b0000000000000001 %!
b0000000000000001 &!
0(!
1)!
14!
b0000000000000001 5!
06!
b10 C!
b0000000000000001 E!
b0000000000000001 G!
b0000000000000001 I!
b0000000000000001 K!
b0000000000000001 M!
b0000000000000001 O!
b0000000000000001 Q!
b0000000000000001 S!
#52
0W
#53
1#
b0000000000000001 %
b0000 /
b000 0
02
b0000000000000000 3
b0000000000000001 5
b0000000000000000 8
b1111111111111111 9
0:
0<
1>
1E
b10 F
1W
1Z
b0000000000000001 \
b0000000000000001 q
b0000000000000000 |
b0000000000000000 }
b0000000000000000 ~
b0000000000000000 !!
b0000000000000000 "!
b0000000000000000 #!
b0000000000000000 $!
b0000000000000000 %!
b0000000000000000 &!
0)!
1+!
12!
04!
b0000000000000000 5!
18!
b11 C!
b0000000000000000 E!
1F!
b0000000000000000 G!
b0000000000000000 I!
b0000000000000000 K!
b0000000000000000 M!
b0000000000000000 O!
b0000000000000000 Q!
b0000000000000000 S!
#54
0W
#55
0#
0>
b11 F
1W
0Z
0+!
b00 C!
0F!
#56
0W
0f
b11 C!
#57
1W
#58
0W
b0001010001011000 Y
1f
b00 C!
#59
b0001010001011000 .
b0001010001011000 7
1;
0E
b00 F
1W
b0001010001011000 e
b0001010001011000 z
1(!
02!
16!
08!
b0001010001011000 B!
b01 C!
#60
0W
#61
b1011 /
b101 0
12
b1111111111111111 3
b1111111111111111 8
b0000000000000000 9
1:
0;
1<
b01 F
1W
b1111111111111111 |
b1111111111111111 }
b1111111111111111 ~
b1111111111111111 !!
b1111111111111111 "!
b1111111111111111 #!
b1111111111111111 $!
b1111111111111111 %!
b1111111111111111 &!
0(!
1)!
14!
b1111111111111111 5!
06!
b10 C!
b1111111111111111 E!
b1111111111111111 G!
b1111111111111111 I!
b1111111111111111 K!
b1111111111111111 M!
b1111111111111111 O!
b1111111111111111 Q!
b1111111111111111 S!
#62
0W
#63
1#
b1111111111111111 %
b0000 /
b000 0
02
b0000000000000000 3
b1111111111111111 5
b0000000000000000 8
b1111111111111111 9
0:
0<
1=
1E
b10 F
1W
1Z
b1111111111111111 \
b1111111111111111 q
b0000000000000000 |
b0000000000000000 }
b0000000000000000 ~
b0000000000000000 !!
b0000000000000000 "!
b0000000000000000 #!
b0000000000000000 $!
b0000000000000000 %!
b0000000000000000 &!
0)!
1*!
12!
04!
b0000000000000000 5!
18!
b11 C!
1D!
b0000000000000000 E!
b0000000000000000 G!
b0000000000000000 I!
b0000000000000000 K!
b0000000000000000 M!
b0000000000000000 O!
b0000000000000000 Q!
b0000000000000000 S!
#64
0W
#65
0#
0=
b11 F
1W
0Z
0*!
b00 C!
0D!
#66
0W
0f
b11 C!
#67
1W
#68
0W
b1100110000001100 Y
1f
b00 C!
#69
b1100110000001100 .
b110 0
b1100110000001100 7
1;
0E
b00 F
1W
b1100110000001100 e
b1100110000001100 z
1(!
02!
16!
08!
b1100110000001100 B!
b01 C!
#70
0W
#71
b0001 /
b011 0
11
b1111111111111111 3
0;
1<
b01 F
1W
b1111111111111111 |
b1111111111111111 }
b1111111111111111 ~
b1111111111111111 !!
b1111111111111111 "!
b1111111111111111 #!
b1111111111111111 $!
b1111111111111111 %!
b1111111111111111 &!
0(!
1)!
14!
b1111111111111111 5!
06!
b10 C!
b1111111111111111 E!
b1111111111111111 G!
b1111111111111111 I!
b1111111111111111 K!
b1111111111111111 M!
b1111111111111111 O!
b1111111111111111 Q!
b1111111111111111 S!
#72
0W
#73
1#
b0000 /
b000 0
01
b0000000000000000 3
0<
1C
1E
b10 F
1W
1Z
b0000000000000000 |
b0000000000000000 }
b0000000000000000 ~
b0000000000000000 !!
b0000000000000000 "!
b0000000000000000 #!
b0000000000000000 $!
b0000000000000000 %!
b0000000000000000 &!
0)!
10!
12!
04!
b0000000000000000 5!
18!
b11 C!
b0000000000000000 E!
b0000000000000000 G!
b0000000000000000 I!
b0000000000000000 K!
b0000000000000000 M!
b0000000000000000 O!
1P!
b0000000000000000 Q!
b0000000000000000 S!
#74
0W
#75
0#
0C
b11 F
1W
0Z
00!
b00 C!
0P!
#76
0W
0f
b11 C!
#77
1W
#78
0W
b1100010000101100 Y
1f
b00 C!
#79
b1100010000101100 .
b110 0
b1100010000101100 7
1;
0E
b00 F
1W
b1100010000101100 e
b1100010000101100 z
1(!
02!
16!
08!
b1100010000101100 B!
b01 C!
#80
0W
#81
b0101 /
b001 0
11
b1111111111111111 3
b1111111111111111 8
1:
0;
1<
b01 F
1W
b1111111111111111 |
b1111111111111111 }
b1111111111111111 ~
b1111111111111111 !!
b1111111111111111 "!
b1111111111111111 #!
b1111111111111111 $!
b1111111111111111 %!
b1111111111111111 &!
0(!
1)!
14!
b1111111111111111 5!
06!
b10 C!
b1111111111111111 E!
b1111111111111111 G!
b1111111111111111 I!
b1111111111111111 K!
b1111111111111111 M!
b1111111111111111 O!
b1111111111111111 Q!
b1111111111111111 S!
#82
0W
#83
1#
b0000 /
b000 0
01
b0000000000000000 3
b0000000000000000 8
0:
0<
1C
1E
b10 F
1W
1Z
b0000000000000000 |
b0000000000000000 }
b0000000000000000 ~
b0000000000000000 !!
b0000000000000000 "!
b0000000000000000 #!
b0000000000000000 $!
b0000000000000000 %!
b0000000000000000 &!
0)!
10!
12!
04!
b0000000000000000 5!
18!
b11 C!
b0000000000000000 E!
b0000000000000000 G!
b0000000000000000 I!
b0000000000000000 K!
b0000000000000000 M!
b0000000000000000 O!
1P!
b0000000000000000 Q!
b0000000000000000 S!
#84
0W
#85
0#
0C
b11 F
1W
0Z
00!
b00 C!
0P!
#86
0W
0f
b11 C!
#87
1W
#88
0W
b1111100001000000 Y
1f
b00 C!
#89
b1111100001000000 .
b111 0
b1111100001000000 7
1;
0E
b00 F
1W
b1111100001000000 e
b1111100001000000 z
1(!
02!
16!
08!
b1111100001000000 B!
b01 C!
#90
0W
#91
b1000 /
b110 0
0;
1<
b01 F
1W
0(!
1)!
14!
06!
b10 C!
#92
0W
#93
1#
b0000000000000000 %
b0000 /
b000 0
b0000000000000000 5
0<
1D
1E
b10 F
1W
1Z
b0000000000000000 \
b0000000000000000 q
0)!
11!
12!
04!
18!
b11 C!
1R!
#94
0W
#95
0#
0D
b11 F
1W
0Z
01!
b00 C!
0R!
#96
0W
0f
b11 C!
#97
1W
#98
0W
b0100000001100000 Y
1f
b00 C!
#99
b0100000001100000 .
b010 0
b0100000001100000 7
1;
0E
b00 F
1W
b0100000001100000 e
b0100000001100000 z
1(!
02!
16!
08!
b0100000001100000 B!
b01 C!
#100
0W
#101
b1100 /
b000 0
b0000000000000001 9
0;
1<
b01 F
1W
0(!
1)!
14!
06!
b10 C!
#102
0W
#103
1#
b0000 /
b1111111111111111 9
0<
1?
1E
b10 F
1W
1Z
0)!
1,!
12!
04!
18!
b11 C!
1H!
#104
0W
#105
0#
0?
b11 F
1W
0Z
0,!
b00 C!
0H!
#106
0W
0f
b11 C!
#107
1W
#108
0W
b0111110001111000 Y
1f
b00 C!
#109
b0111110001111000 .
b011 0
b0111110001111000 7
1;
0E
b00 F
1W
b0111110001111000 e
b0111110001111000 z
1(!
02!
16!
08!
b0111110001111000 B!
b01 C!
#110
0W
#111
b1111 /
b111 0
12
b1111111111111111 3
b1111111111111111 8
b0000000000000000 9
1:
0;
1<
b01 F
1W
b1111111111111111 |
b1111111111111111 }
b1111111111111111 ~
b1111111111111111 !!
b1111111111111111 "!
b1111111111111111 #!
b1111111111111111 $!
b1111111111111111 %!
b1111111111111111 &!
0(!
1)!
14!
b1111111111111111 5!
06!
b10 C!
b1111111111111111 E!
b1111111111111111 G!
b1111111111111111 I!
b1111111111111111 K!
b1111111111111111 M!
b1111111111111111 O!
b1111111111111111 Q!
b1111111111111111 S!
#112
0W
#113
1#
b1111111111111111 %
b0000 /
b000 0
02
b0000000000000000 3
b1111111111111111 5
b0000000000000000 8
b1111111111111111 9
0:
0<
1@
1E
b10 F
1W
1Z
b1111111111111111 \
b1111111111111111 q
b0000000000000000 |
b0000000000000000 }
b0000000000000000 ~
b0000000000000000 !!
b0000000000000000 "!
b0000000000000000 #!
b0000000000000000 $!
b0000000000000000 %!
b0000000000000000 &!
0)!
1-!
12!
04!
b0000000000000000 5!
18!
b11 C!
b0000000000000000 E!
b0000000000000000 G!
b0000000000000000 I!
1J!
b0000000000000000 K!
b0000000000000000 M!
b0000000000000000 O!
b0000000000000000 Q!
b0000000000000000 S!
#114
0W
#115
0#
0@
b11 F
1W
0Z
0-!
b00 C!
0J!
#116
0W
0f
b11 C!
#117
1W
#118
0W
b1001110001101000 Y
1f
b00 C!
#119
b1001110001101000 .
b100 0
b1001110001101000 7
1;
0E
b00 F
1W
b1001110001101000 e
b1001110001101000 z
1(!
02!
16!
08!
b1001110001101000 B!
b01 C!
#120
0W
#121
b1101 /
b111 0
0;
1<
b01 F
1W
0(!
1)!
14!
06!
b10 C!
#122
0W
#123
1#
b0000000000000000 %
b0000 /
b000 0
b0000000000000000 5
0<
1A
1E
b10 F
1W
1Z
b0000000000000000 \
b0000000000000000 q
0)!
1.!
12!
04!
18!
b11 C!
1L!
#124
0W
#125
0#
0A
b11 F
1W
0Z
0.!
b00 C!
0L!
#126
0W
0f
b11 C!
#127
1W
#128
0W
b0100000001100100 Y
1f
b00 C!
#129
b0100000001100100 .
b010 0
b0100000001100100 7
1;
0E
b00 F
1W
b0100000001100100 e
b0100000001100100 z
1(!
02!
16!
08!
b0100000001100100 B!
b01 C!
#130
0W
#131
b1100 /
b000 0
11
b0000000000000001 3
b0000000000000001 9
0;
1<
b01 F
1W
b0000000000000001 |
b0000000000000001 }
b0000000000000001 ~
b0000000000000001 !!
b0000000000000001 "!
b0000000000000001 #!
b0000000000000001 $!
b0000000000000001 %!
b0000000000000001 &!
0(!
1)!
14!
b0000000000000001 5!
06!
b10 C!
b0000000000000001 E!
b0000000000000001 G!
b0000000000000001 I!
b0000000000000001 K!
b0000000000000001 M!
b0000000000000001 O!
b0000000000000001 Q!
b0000000000000001 S!
#132
0W
#133
1#
b0000000000000001 %
b0000 /
01
b0000000000000000 3
b0000000000000001 5
b1111111111111111 9
0<
1?
1E
b10 F
1W
1Z
b0000000000000001 \
b0000000000000001 q
b0000000000000000 |
b0000000000000000 }
b0000000000000000 ~
b0000000000000000 !!
b0000000000000000 "!
b0000000000000000 #!
b0000000000000000 $!
b0000000000000000 %!
b0000000000000000 &!
0)!
1,!
12!
04!
b0000000000000000 5!
18!
b11 C!
b0000000000000000 E!
b0000000000000000 G!
1H!
b0000000000000000 I!
b0000000000000000 K!
b0000000000000000 M!
b0000000000000000 O!
b0000000000000000 Q!
b0000000000000000 S!
#134
0W
#135
0#
0?
b11 F
1W
0Z
0,!
b00 C!
0H!
#136
0W
0f
b11 C!
#137
1W
#138
0W
b1010000000111000 Y
1f
b00 C!
#139
b1010000000111000 .
b101 0
b1010000000111000 7
1;
0E
b00 F
1W
b1010000000111000 e
b1010000000111000 z
1(!
02!
16!
08!
b1010000000111000 B!
b01 C!
#140
0W
#141
b0111 /
b000 0
12
b1111111111111111 3
b1111111111111111 8
b0000000000000000 9
1:
0;
1<
b01 F
1W
b1111111111111111 |
b1111111111111111 }
b1111111111111111 ~
b1111111111111111 !!
b1111111111111111 "!
b1111111111111111 #!
b1111111111111111 $!
b1111111111111111 %!
b1111111111111111 &!
0(!
1)!
14!
b1111111111111111 5!
06!
b10 C!
b1111111111111111 E!
b1111111111111111 G!
b1111111111111111 I!
b1111111111111111 K!
b1111111111111111 M!
b1111111111111111 O!
b1111111111111111 Q!
b1111111111111111 S!
#142
0W
#143
1#
b1111111111111111 %
b0000 /
02
b0000000000000000 3
b1111111111111111 5
b0000000000000000 8
b1111111111111111 9
0:
0<
1B
1E
b10 F
1W
1Z
b1111111111111111 \
b1111111111111111 q
b0000000000000000 |
b0000000000000000 }
b0000000000000000 ~
b0000000000000000 !!
b0000000000000000 "!
b0000000000000000 #!
b0000000000000000 $!
b0000000000000000 %!
b0000000000000000 &!
0)!
1/!
12!
04!
b0000000000000000 5!
18!
b11 C!
b0000000000000000 E!
b0000000000000000 G!
b0000000000000000 I!
b0000000000000000 K!
b0000000000000000 M!
1N!
b0000000000000000 O!
b0000000000000000 Q!
b0000000000000000 S!
#144
0W
#145
0#
0B
b11 F
1W
0Z
0/!
b00 C!
0N!
#146
0W
0f
b11 C!
#147
1W
#148
0W
b0110000001111100 Y
1f
b00 C!
#149
b0110000001111100 .
b011 0
b0110000001111100 7
1;
0E
b00 F
1W
b0110000001111100 e
b0110000001111100 z
1(!
02!
16!
08!
b0110000001111100 B!
b01 C!
