level_3/lab03/waveform.vcd
$version Generated by VerilatedVcd $end
$date Fri Nov  8 13:21:13 2024
 $end
$timescale   1ps $end

 $scope module TOP $end
  $var wire  1 &! clk $end
  $var wire 16 (! din [15:0] $end
  $var wire  1 4! done $end
  $var wire 16 5! dout(0) [15:0] $end
  $var wire 16 6! dout(1) [15:0] $end
  $var wire 16 ?! dout(10) [15:0] $end
  $var wire 16 7! dout(2) [15:0] $end
  $var wire 16 8! dout(3) [15:0] $end
  $var wire 16 9! dout(4) [15:0] $end
  $var wire 16 :! dout(5) [15:0] $end
  $var wire 16 ;! dout(6) [15:0] $end
  $var wire 16 <! dout(7) [15:0] $end
  $var wire 16 =! dout(8) [15:0] $end
  $var wire 16 >! dout(9) [15:0] $end
  $var wire  1 B! regen(0) $end
  $var wire  1 C! regen(1) $end
  $var wire  1 L! regen(10) $end
  $var wire  1 D! regen(2) $end
  $var wire  1 E! regen(3) $end
  $var wire  1 F! regen(4) $end
  $var wire  1 G! regen(5) $end
  $var wire  1 H! regen(6) $end
  $var wire  1 I! regen(7) $end
  $var wire  1 J! regen(8) $end
  $var wire  1 K! regen(9) $end
  $var wire 16 )! regs(0) [15:0] $end
  $var wire 16 *! regs(1) [15:0] $end
  $var wire 16 3! regs(10) [15:0] $end
  $var wire 16 +! regs(2) [15:0] $end
  $var wire 16 ,! regs(3) [15:0] $end
  $var wire 16 -! regs(4) [15:0] $end
  $var wire 16 .! regs(5) [15:0] $end
  $var wire 16 /! regs(6) [15:0] $end
  $var wire 16 0! regs(7) [15:0] $end
  $var wire 16 1! regs(8) [15:0] $end
  $var wire 16 2! regs(9) [15:0] $end
  $var wire  1 '! reset $end
  $var wire  1 A! run $end
  $var wire  1 @! write $end
  $scope module Bitty $end
   $var wire 16 V alu_out [15:0] $end
   $var wire  4 S alu_sel [3:0] $end
   $var wire  1 N! carry_in $end
   $var wire  1 U carry_out $end
   $var wire  1 &! clk $end
   $var wire  1 M! compare $end
   $var wire 16 F d_in(0) [15:0] $end
   $var wire 16 G d_in(1) [15:0] $end
   $var wire 16 P d_in(10) [15:0] $end
   $var wire 16 H d_in(2) [15:0] $end
   $var wire 16 I d_in(3) [15:0] $end
   $var wire 16 J d_in(4) [15:0] $end
   $var wire 16 K d_in(5) [15:0] $end
   $var wire 16 L d_in(6) [15:0] $end
   $var wire 16 M d_in(7) [15:0] $end
   $var wire 16 N d_in(8) [15:0] $end
   $var wire 16 O d_in(9) [15:0] $end
   $var wire 16 ' d_out(0) [15:0] $end
   $var wire 16 ( d_out(1) [15:0] $end
   $var wire 16 1 d_out(10) [15:0] $end
   $var wire 16 ) d_out(2) [15:0] $end
   $var wire 16 * d_out(3) [15:0] $end
   $var wire 16 + d_out(4) [15:0] $end
   $var wire 16 , d_out(5) [15:0] $end
   $var wire 16 - d_out(6) [15:0] $end
   $var wire 16 . d_out(7) [15:0] $end
   $var wire 16 / d_out(8) [15:0] $end
   $var wire 16 0 d_out(9) [15:0] $end
   $var wire 16 (! din [15:0] $end
   $var wire  1 4! done $end
   $var wire 16 5! dout(0) [15:0] $end
   $var wire 16 6! dout(1) [15:0] $end
   $var wire 16 ?! dout(10) [15:0] $end
   $var wire 16 7! dout(2) [15:0] $end
   $var wire 16 8! dout(3) [15:0] $end
   $var wire 16 9! dout(4) [15:0] $end
   $var wire 16 :! dout(5) [15:0] $end
   $var wire 16 ;! dout(6) [15:0] $end
   $var wire 16 <! dout(7) [15:0] $end
   $var wire 16 =! dout(8) [15:0] $end
   $var wire 16 >! dout(9) [15:0] $end
   $var wire  1 T mode $end
   $var wire 16 R mux_out [15:0] $end
   $var wire  3 Q mux_sel [2:0] $end
   $var wire  1 n reg_en(0) $end
   $var wire  1 o reg_en(1) $end
   $var wire  1 x reg_en(10) $end
   $var wire  1 p reg_en(2) $end
   $var wire  1 q reg_en(3) $end
   $var wire  1 r reg_en(4) $end
   $var wire  1 s reg_en(5) $end
   $var wire  1 t reg_en(6) $end
   $var wire  1 u reg_en(7) $end
   $var wire  1 v reg_en(8) $end
   $var wire  1 w reg_en(9) $end
   $var wire  1 B! regen(0) $end
   $var wire  1 C! regen(1) $end
   $var wire  1 L! regen(10) $end
   $var wire  1 D! regen(2) $end
   $var wire  1 E! regen(3) $end
   $var wire  1 F! regen(4) $end
   $var wire  1 G! regen(5) $end
   $var wire  1 H! regen(6) $end
   $var wire  1 I! regen(7) $end
   $var wire  1 J! regen(8) $end
   $var wire  1 K! regen(9) $end
   $var wire 16 )! regs(0) [15:0] $end
   $var wire 16 *! regs(1) [15:0] $end
   $var wire 16 3! regs(10) [15:0] $end
   $var wire 16 +! regs(2) [15:0] $end
   $var wire 16 ,! regs(3) [15:0] $end
   $var wire 16 -! regs(4) [15:0] $end
   $var wire 16 .! regs(5) [15:0] $end
   $var wire 16 /! regs(6) [15:0] $end
   $var wire 16 0! regs(7) [15:0] $end
   $var wire 16 1! regs(8) [15:0] $end
   $var wire 16 2! regs(9) [15:0] $end
   $var wire  1 '! reset $end
   $var wire  1 A! run $end
   $var wire  1 @! write $end
   $scope module ControlUnit1 $end
    $var wire  4 S alu_sel [3:0] $end
    $var wire  1 &! clk $end
    $var wire  1 4! done $end
    $var wire  1 e en_0 $end
    $var wire  1 f en_1 $end
    $var wire  1 g en_2 $end
    $var wire  1 h en_3 $end
    $var wire  1 i en_4 $end
    $var wire  1 j en_5 $end
    $var wire  1 k en_6 $end
    $var wire  1 l en_7 $end
    $var wire  1 $ en_c $end
    $var wire  1 % en_inst $end
    $var wire  1 # en_s $end
    $var wire 16 (! instruction [15:0] $end
    $var wire  1 T mode $end
    $var wire  3 Q mux_sel [2:0] $end
    $var wire  2 m next_state [1:0] $end
    $var wire  1 '! reset $end
    $var wire  1 A! run $end
    $var wire  2 & state [1:0] $end
   $upscope $end
   $scope module alu1 $end
    $var wire 16 V alu_out [15:0] $end
    $var wire  1 d arithmetic_carry_out $end
    $var wire  1 N! carry_in $end
    $var wire  1 U carry_out $end
    $var wire  1 M! compare $end
    $var wire 16 E in_a [15:0] $end
    $var wire 16 R in_b [15:0] $end
    $var wire  1 T mode $end
    $var wire  4 S sel [3:0] $end
    $var wire 16 b temp_a_out [15:0] $end
    $var wire 16 c temp_l_out [15:0] $end
    $scope module myArithUnit $end
     $var wire 16 b alu_out [15:0] $end
     $var wire  1 N! carry_in $end
     $var wire  1 d carry_out $end
     $var wire 16 E in_a [15:0] $end
     $var wire 16 R in_b [15:0] $end
     $var wire  4 S sel [3:0] $end
    $upscope $end
    $scope module myLogicUnit $end
     $var wire 16 c alu_out [15:0] $end
     $var wire 16 E in_a [15:0] $end
     $var wire 16 R in_b [15:0] $end
     $var wire  4 S sel [3:0] $end
    $upscope $end
   $upscope $end
   $scope module mux1 $end
    $var wire 16 R out [15:0] $end
    $var wire 16 = reg0 [15:0] $end
    $var wire 16 > reg1 [15:0] $end
    $var wire 16 ? reg2 [15:0] $end
    $var wire 16 @ reg3 [15:0] $end
    $var wire 16 A reg4 [15:0] $end
    $var wire 16 B reg5 [15:0] $end
    $var wire 16 C reg6 [15:0] $end
    $var wire 16 D reg7 [15:0] $end
    $var wire  3 Q sel [2:0] $end
   $upscope $end
   $scope module reg0 $end
    $var wire  1 &! clk $end
    $var wire  1 { enable $end
    $var wire 16 Y in [15:0] $end
    $var wire 16 4 out [15:0] $end
   $upscope $end
   $scope module reg1 $end
    $var wire  1 &! clk $end
    $var wire  1 | enable $end
    $var wire 16 Z in [15:0] $end
    $var wire 16 5 out [15:0] $end
   $upscope $end
   $scope module reg2 $end
    $var wire  1 &! clk $end
    $var wire  1 } enable $end
    $var wire 16 [ in [15:0] $end
    $var wire 16 6 out [15:0] $end
   $upscope $end
   $scope module reg3 $end
    $var wire  1 &! clk $end
    $var wire  1 ~ enable $end
    $var wire 16 \ in [15:0] $end
    $var wire 16 7 out [15:0] $end
   $upscope $end
   $scope module reg4 $end
    $var wire  1 &! clk $end
    $var wire  1 !! enable $end
    $var wire 16 ] in [15:0] $end
    $var wire 16 8 out [15:0] $end
   $upscope $end
   $scope module reg5 $end
    $var wire  1 &! clk $end
    $var wire  1 "! enable $end
    $var wire 16 ^ in [15:0] $end
    $var wire 16 9 out [15:0] $end
   $upscope $end
   $scope module reg6 $end
    $var wire  1 &! clk $end
    $var wire  1 #! enable $end
    $var wire 16 _ in [15:0] $end
    $var wire 16 : out [15:0] $end
   $upscope $end
   $scope module reg7 $end
    $var wire  1 &! clk $end
    $var wire  1 $! enable $end
    $var wire 16 ` in [15:0] $end
    $var wire 16 ; out [15:0] $end
   $upscope $end
   $scope module regC $end
    $var wire  1 &! clk $end
    $var wire  1 y enable $end
    $var wire 16 W in [15:0] $end
    $var wire 16 2 out [15:0] $end
   $upscope $end
   $scope module regS $end
    $var wire  1 &! clk $end
    $var wire  1 z enable $end
    $var wire 16 X in [15:0] $end
    $var wire 16 3 out [15:0] $end
   $upscope $end
   $scope module reg_inst $end
    $var wire  1 &! clk $end
    $var wire  1 %! enable $end
    $var wire 16 a in [15:0] $end
    $var wire 16 < out [15:0] $end
   $upscope $end
  $upscope $end
 $upscope $end
$enddefinitions $end


#0
1#
0$
0%
b00 &
b0000000000000000 '
b0000000000000000 (
b0000000000000000 )
b0000000000000000 *
b0000000000000000 +
b0000000000000000 ,
b0000000000000000 -
b0000000000000000 .
b0000000000000000 /
b0000000000000000 0
b0000000000000000 1
b0000000000000000 2
b0000000000000000 3
b0000000000000000 4
b0000000000000000 5
b0000000000000000 6
b0000000000000000 7
b0000000000000000 8
b0000000000000000 9
b0000000000000000 :
b0000000000000000 ;
b0000000000000000 <
b0000000000000000 =
b0000000000000000 >
b0000000000000000 ?
b0000000000000000 @
b0000000000000000 A
b0000000000000000 B
b0000000000000000 C
b0000000000000000 D
b0000000000000000 E
b0000000000000000 F
b0000000000000000 G
b0000000000000000 H
b0000000000000000 I
b0000000000000000 J
b0000000000000000 K
b0000000000000000 L
b0000000000000000 M
b0000000000000000 N
b0000000000000000 O
b0000000000000000 P
b000 Q
b0000000000000000 R
b0000 S
0T
0U
b0000000000000000 V
b0000000000000000 W
b0000000000000000 X
b0000000000000000 Y
b0000000000000000 Z
b0000000000000000 [
b0000000000000000 \
b0000000000000000 ]
b0000000000000000 ^
b0000000000000000 _
b0000000000000000 `
b0000000000000000 a
b0000000000000000 b
b1111111111111111 c
0d
0e
0f
0g
0h
0i
0j
0k
0l
b01 m
0n
0o
0p
0q
0r
0s
0t
0u
0v
0w
0x
0y
0z
0{
0|
0}
0~
0!!
0"!
0#!
0$!
0%!
0&!
1'!
b0000000000000000 (!
b0000000000000000 )!
b0000000000000000 *!
b0000000000000000 +!
b0000000000000000 ,!
b0000000000000000 -!
b0000000000000000 .!
b0000000000000000 /!
b0000000000000000 0!
b0000000000000000 1!
b0000000000000000 2!
b0000000000000000 3!
04!
b0000000000000000 5!
b0000000000000000 6!
b0000000000000000 7!
b0000000000000000 8!
b0000000000000000 9!
b0000000000000000 :!
b0000000000000000 ;!
b0000000000000000 <!
b0000000000000000 =!
b0000000000000000 >!
b0000000000000000 ?!
0@!
0A!
0B!
0C!
0D!
0E!
0F!
0G!
0H!
0I!
0J!
0K!
0L!
1M!
0N!
#1
1n
1z
1&!
#2
0n
0z
0&!
0'!
#3
0#
1$
b01 &
b0000000000000001 H
b0000000000000010 I
b0000000000000011 J
b0000000000000100 K
b0000000000000101 L
b0000000000000110 M
b0000000000000111 N
b0000000000001000 O
b0000000000000001 Y
b0000000000000010 Z
b0000000000000011 [
b0000000000000100 \
b0000000000000101 ]
b0000000000000110 ^
b0000000000000111 _
b0000000000001000 `
b10 m
1o
1y
1&!
b0000000000000001 +!
b0000000000000010 ,!
b0000000000000011 -!
b0000000000000100 .!
b0000000000000101 /!
b0000000000000110 0!
b0000000000000111 1!
b0000000000001000 2!
1D!
1E!
1F!
1G!
1H!
1I!
1J!
1K!
#4
0o
0y
0&!
#5
1%
b10 &
b0000000000000000 H
b0000000000000000 Y
1e
b11 m
1o
1p
1x
1y
1{
1%!
1&!
14!
0D!
0E!
0F!
0G!
0H!
0I!
0J!
0K!
#6
b0000000000000000 O
b0000000000000000 `
1l
0o
1w
0x
0y
1$!
0%!
0&!
b1111010000010100 (!
1A!
#7
b11 &
b00 m
1o
1x
1y
1%!
1&!
04!
#8
0o
0x
0y
0%!
0&!
#9
1#
0$
0%
b00 &
b0000000000000001 H
b0000000000001000 O
b111 Q
b0000000000000001 Y
b0000000000001000 `
0e
0l
b01 m
1n
0p
0w
1z
0{
0$!
1&!
#10
0n
0z
0&!
#11
0#
1$
b01 &
b101 Q
b0010 S
1T
b1111111111111111 b
b0000000000000000 c
b10 m
1o
1y
1&!
#12
0o
0y
0&!
#13
1%
b10 &
b0000000000000000 O
b0000000000000000 `
1l
b11 m
1o
1w
1x
1y
1$!
1%!
1&!
14!
#14
0o
0x
0y
0%!
0&!
#15
b11 &
b00 m
1o
1x
1y
1%!
1&!
04!
#16
b11 m
0o
0x
0y
0%!
0&!
0A!
#17
1o
1x
1y
1%!
1&!
#18
b00 m
0o
0x
0y
0%!
0&!
b0011100001011000 (!
1A!
#19
1#
0$
0%
b00 &
b0000000000001000 O
b001 Q
b0000000000001000 `
0l
b01 m
1n
0w
1z
0$!
1&!
#20
0n
0z
0&!
#21
0#
1$
b01 &
b1111111111111111 G
b110 Q
b1011 S
0T
1U
b1111111111111111 V
b1111111111111111 W
1d
b10 m
1o
1y
1&!
#22
0o
0y
0&!
#23
1%
b10 &
b0000000000000000 I
b0000000000000000 Z
1f
b11 m
1o
1q
1x
1y
1|
1%!
1&!
14!
#24
0o
0x
0y
0%!
0&!
#25
b11 &
b00 m
1o
1x
1y
1%!
1&!
04!
#26
b11 m
0o
0x
0y
0%!
0&!
0A!
#27
1o
1x
1y
1%!
1&!
#28
b00 m
0o
0x
0y
0%!
0&!
b1000100001101000 (!
1A!
#29
1#
0$
0%
b00 &
b0000000000000010 I
b100 Q
b0000000000000010 Z
0f
b01 m
1n
0q
1z
0|
1&!
#30
0n
0z
0&!
#31
0#
1$
b01 &
b0000000000000000 G
b010 Q
b1101 S
0U
b0000000000000000 V
b0000000000000000 W
b0000000000000000 b
b1111111111111111 c
0d
b10 m
1o
1y
1&!
#32
0o
0y
0&!
#33
1%
b10 &
b0000000000000000 L
b0000000000000000 ]
1i
b11 m
1o
1t
1x
1y
1!!
1%!
1&!
14!
#34
0o
0x
0y
0%!
0&!
#35
b11 &
b00 m
1o
1x
1y
1%!
1&!
04!
#36
b11 m
0o
0x
0y
0%!
0&!
0A!
#37
1o
1x
1y
1%!
1&!
#38
b00 m
0o
0x
0y
0%!
0&!
b0010100001101000 (!
1A!
#39
1#
0$
0%
b00 &
b0000000000000101 L
b001 Q
b0000000000000101 ]
0i
b01 m
1n
0t
1z
0!!
1&!
#40
0n
0z
0&!
#41
0#
1$
b01 &
b010 Q
b10 m
1o
1y
1&!
#42
0o
0y
0&!
#43
1%
b10 &
b0000000000000000 I
b0000000000000000 Z
1f
b11 m
1o
1q
1x
1y
1|
1%!
1&!
14!
#44
0o
0x
0y
0%!
0&!
#45
b11 &
b00 m
1o
1x
1y
1%!
1&!
04!
#46
b11 m
0o
0x
0y
0%!
0&!
0A!
#47
1o
1x
1y
1%!
1&!
#48
b00 m
0o
0x
0y
0%!
0&!
b0000010000100100 (!
1A!
#49
1#
0$
0%
b00 &
b0000000000000010 I
b000 Q
b0000000000000010 Z
0f
b01 m
1n
0q
1z
0|
1&!
#50
0n
0z
0&!
#51
0#
1$
b01 &
b1111111111111111 G
b001 Q
b0100 S
1T
b1111111111111111 V
b1111111111111111 W
b10 m
1o
1y
1&!
#52
0o
0y
0&!
#53
1%
b10 &
b0000000000000000 H
b0000000000000000 Y
1e
b11 m
1o
1p
1x
1y
1{
1%!
1&!
14!
#54
0o
0x
0y
0%!
0&!
#55
b11 &
b00 m
1o
1x
1y
1%!
1&!
04!
#56
b11 m
0o
0x
0y
0%!
0&!
0A!
#57
1o
1x
1y
1%!
1&!
#58
b00 m
0o
0x
0y
0%!
0&!
b1001110000001100 (!
1A!
#59
1#
0$
0%
b00 &
b0000000000000001 H
b100 Q
b0000000000000001 Y
0e
b01 m
1n
0p
1z
0{
1&!
#60
0n
0z
0&!
#61
0#
1$
b01 &
b111 Q
b0001 S
b10 m
1o
1y
1&!
#62
0o
0y
0&!
#63
1%
b10 &
b0000000000000000 L
b0000000000000000 ]
1i
b11 m
1o
1t
1x
1y
1!!
1%!
1&!
14!
#64
0o
0x
0y
0%!
0&!
#65
b11 &
b00 m
1o
1x
1y
1%!
1&!
04!
#66
b11 m
0o
0x
0y
0%!
0&!
0A!
#67
1o
1x
1y
1%!
1&!
#68
b00 m
0o
0x
0y
0%!
0&!
b0101100000000000 (!
1A!
#69
1#
0$
0%
b00 &
b0000000000000101 L
b010 Q
b0000000000000101 ]
0i
b01 m
1n
0t
1z
0!!
1&!
#70
0n
0z
0&!
#71
0#
1$
b01 &
b0000000000000000 G
b110 Q
b0000 S
0T
b0000000000000000 V
b0000000000000000 W
b10 m
1o
1y
1&!
#72
0o
0y
0&!
#73
1%
b10 &
b0000000000000000 J
b0000000000000000 [
1g
b11 m
1o
1r
1x
1y
1}
1%!
1&!
14!
#74
0o
0x
0y
0%!
0&!
#75
b11 &
b00 m
1o
1x
1y
1%!
1&!
04!
#76
b11 m
0o
0x
0y
0%!
0&!
0A!
#77
1o
1x
1y
1%!
1&!
#78
b00 m
0o
0x
0y
0%!
0&!
b1001000001110000 (!
1A!
#79
1#
0$
0%
b00 &
b0000000000000011 J
b100 Q
b0000000000000011 [
0g
b01 m
1n
0r
1z
0}
1&!
#80
0n
0z
0&!
#81
0#
1$
b01 &
b1111111111111111 G
b1110 S
b1111111111111111 V
b1111111111111111 W
b1111111111111111 b
b0000000000000000 c
b10 m
1o
1y
1&!
#82
0o
0y
0&!
#83
1%
b10 &
b0000000000000000 L
b0000000000000000 ]
1i
b11 m
1o
1t
1x
1y
1!!
1%!
1&!
14!
#84
0o
0x
0y
0%!
0&!
#85
b11 &
b00 m
1o
1x
1y
1%!
1&!
04!
#86
b11 m
0o
0x
0y
0%!
0&!
0A!
#87
1o
1x
1y
1%!
1&!
#88
b00 m
0o
0x
0y
0%!
0&!
b0010010001011000 (!
1A!
#89
1#
0$
0%
b00 &
b0000000000000101 L
b001 Q
b0000000000000101 ]
0i
b01 m
1n
0t
1z
0!!
1&!
#90
0n
0z
0&!
#91
0#
1$
b01 &
b1011 S
1U
1d
b10 m
1o
1y
1&!
#92
0o
0y
0&!
#93
1%
b10 &
b0000000000000000 I
b0000000000000000 Z
1f
b11 m
1o
1q
1x
1y
1|
1%!
1&!
14!
#94
0o
0x
0y
0%!
0&!
#95
b11 &
b00 m
1o
1x
1y
1%!
1&!
04!
#96
b11 m
0o
0x
0y
0%!
0&!
0A!
#97
1o
1x
1y
1%!
1&!
#98
b00 m
0o
0x
0y
0%!
0&!
b1111100000000100 (!
1A!
#99
1#
0$
0%
b00 &
b0000000000000010 I
b111 Q
b0000000000000010 Z
0f
b01 m
1n
0q
1z
0|
1&!
#100
0n
0z
0&!
#101
0#
1$
b01 &
b110 Q
b0000 S
1T
0U
b0000000000000000 b
b1111111111111111 c
0d
b10 m
1o
1y
1&!
#102
0o
0y
0&!
#103
1%
b10 &
b0000000000000000 O
b0000000000000000 `
1l
b11 m
1o
1w
1x
1y
1$!
1%!
1&!
14!
#104
0o
0x
0y
0%!
0&!
#105
b11 &
b00 m
1o
1x
1y
1%!
1&!
04!
#106
b11 m
0o
0x
0y
0%!
0&!
0A!
#107
1o
1x
1y
1%!
1&!
#108
b00 m
0o
0x
0y
0%!
0&!
b0001010001010000 (!
1A!
#109
1#
0$
0%
b00 &
b0000000000001000 O
b000 Q
b0000000000001000 `
0l
b01 m
1n
0w
1z
0$!
1&!
#110
0n
0z
0&!
#111
0#
1$
b01 &
b101 Q
b1010 S
0T
b1111111111111111 b
b0000000000000000 c
b10 m
1o
1y
1&!
#112
0o
0y
0&!
#113
1%
b10 &
b0000000000000000 H
b0000000000000000 Y
1e
b11 m
1o
1p
1x
1y
1{
1%!
1&!
14!
#114
0o
0x
0y
0%!
0&!
#115
b11 &
b00 m
1o
1x
1y
1%!
1&!
04!
#116
b11 m
0o
0x
0y
0%!
0&!
0A!
#117
1o
1x
1y
1%!
1&!
#118
b00 m
0o
0x
0y
0%!
0&!
b1111110001000000 (!
1A!
#119
1#
0$
0%
b00 &
b0000000000000001 H
b111 Q
b0000000000000001 Y
0e
b01 m
1n
0p
1z
0{
1&!
#120
0n
0z
0&!
#121
0#
1$
b01 &
b0000000000000000 G
b1000 S
b0000000000000000 V
b0000000000000000 W
b0000000000000000 b
b1111111111111111 c
b10 m
1o
1y
1&!
#122
0o
0y
0&!
#123
1%
b10 &
b0000000000000000 O
b0000000000000000 `
1l
b11 m
1o
1w
1x
1y
1$!
1%!
1&!
14!
#124
0o
0x
0y
0%!
0&!
#125
b11 &
b00 m
1o
1x
1y
1%!
1&!
04!
#126
b11 m
0o
0x
0y
0%!
0&!
0A!
#127
1o
1x
1y
1%!
1&!
#128
b00 m
0o
0x
0y
0%!
0&!
b0001010000011000 (!
1A!
#129
1#
0$
0%
b00 &
b0000000000001000 O
b000 Q
b0000000000001000 `
0l
b01 m
1n
0w
1z
0$!
1&!
#130
0n
0z
0&!
#131
0#
1$
b01 &
b0000000000000001 G
b101 Q
b0011 S
1U
b0000000000000001 V
b0000000000000001 W
b0000000000000001 b
b0000000000000000 c
1d
b10 m
1o
1y
1&!
#132
0o
0y
0&!
#133
1%
b10 &
b0000000000000000 H
b0000000000000000 Y
1e
b11 m
1o
1p
1x
1y
1{
1%!
1&!
14!
#134
0o
0x
0y
0%!
0&!
#135
b11 &
b00 m
1o
1x
1y
1%!
1&!
04!
#136
b11 m
0o
0x
0y
0%!
0&!
0A!
#137
1o
1x
1y
1%!
1&!
#138
b00 m
0o
0x
0y
0%!
0&!
b1001010000111100 (!
1A!
#139
1#
0$
0%
b00 &
b0000000000000001 H
b100 Q
b0000000000000001 Y
0e
b01 m
1n
0p
1z
0{
1&!
#140
0n
0z
0&!
#141
0#
1$
b01 &
b0000000000000000 G
b101 Q
b0111 S
1T
0U
b0000000000000000 V
b0000000000000000 W
b1111111111111111 b
b10 m
1o
1y
1&!
#142
0o
0y
0&!
#143
1%
b10 &
b0000000000000000 L
b0000000000000000 ]
1i
b11 m
1o
1t
1x
1y
1!!
1%!
1&!
14!
#144
0o
0x
0y
0%!
0&!
#145
b11 &
b00 m
1o
1x
1y
1%!
1&!
04!
#146
b11 m
0o
0x
0y
0%!
0&!
0A!
#147
1o
1x
1y
1%!
1&!
#148
b00 m
0o
0x
0y
0%!
0&!
b0110000000111100 (!
1A!
#149
1#
0$
0%
b00 &
b0000000000000101 L
b011 Q
b0000000000000101 ]
0i
b01 m
1n
0t
1z
0!!
1&!
#150
0n
0z
0&!
#151
0#
1$
b01 &
b000 Q
b10 m
1o
1y
1&!
#152
0o
0y
0&!
#153
1%
b10 &
b0000000000000000 K
b0000000000000000 \
1h
b11 m
1o
1s
1x
1y
1~
1%!
1&!
14!
#154
0o
0x
0y
0%!
0&!
#155
b11 &
b00 m
1o
1x
1y
1%!
1&!
04!
#156
b11 m
0o
0x
0y
0%!
0&!
0A!
#157
1o
1x
1y
1%!
1&!
#158
b00 m
0o
0x
0y
0%!
0&!
b1001010000011100 (!
1A!
#159
1#
0$
0%
b00 &
b0000000000000100 K
b100 Q
b0000000000000100 \
0h
b01 m
1n
0s
1z
0~
1&!
#160
0n
0z
0&!
#161
0#
1$
b01 &
b101 Q
b0011 S
b0000000000000001 b
b10 m
1o
1y
1&!
#162
0o
0y
0&!
#163
1%
b10 &
b0000000000000000 L
b0000000000000000 ]
1i
b11 m
1o
1t
1x
1y
1!!
1%!
1&!
14!
#164
0o
0x
0y
0%!
0&!
#165
b11 &
b00 m
1o
1x
1y
1%!
1&!
04!
#166
b11 m
0o
0x
0y
0%!
0&!
0A!
#167
1o
1x
1y
1%!
1&!
#168
b00 m
0o
0x
0y
0%!
0&!
b1101110000111100 (!
1A!
#169
1#
0$
0%
b00 &
b0000000000000101 L
b110 Q
b0000000000000101 ]
0i
b01 m
1n
0t
1z
0!!
1&!
#170
0n
0z
0&!
#171
0#
1$
b01 &
b111 Q
b0111 S
b1111111111111111 b
b10 m
1o
1y
1&!
#172
0o
0y
0&!
#173
1%
b10 &
b0000000000000000 N
b0000000000000000 _
1k
b11 m
1o
1v
1x
1y
1#!
1%!
1&!
14!
#174
0o
0x
0y
0%!
0&!
#175
b11 &
b00 m
1o
1x
1y
1%!
1&!
04!
#176
b11 m
0o
0x
0y
0%!
0&!
0A!
#177
1o
1x
1y
1%!
1&!
#178
b00 m
0o
0x
0y
0%!
0&!
b1011110001001000 (!
1A!
#179
1#
0$
0%
b00 &
b0000000000000111 N
b101 Q
b0000000000000111 _
0k
b01 m
1n
0v
1z
0#!
1&!
#180
0n
0z
0&!
#181
0#
1$
b01 &
b111 Q
b1001 S
0T
b0000000000000000 b
b1111111111111111 c
0d
b10 m
1o
1y
1&!
#182
0o
0y
0&!
#183
1%
b10 &
b0000000000000000 M
b0000000000000000 ^
1j
b11 m
1o
1u
1x
1y
1"!
1%!
1&!
14!
#184
0o
0x
0y
0%!
0&!
#185
b11 &
b00 m
1o
1x
1y
1%!
1&!
04!
#186
b11 m
0o
0x
0y
0%!
0&!
0A!
#187
1o
1x
1y
1%!
1&!
#188
b00 m
0o
0x
0y
0%!
0&!
b1010110001000000 (!
1A!
#189
1#
0$
0%
b00 &
b0000000000000110 M
b101 Q
b0000000000000110 ^
0j
b01 m
1n
0u
1z
0"!
1&!
#190
0n
0z
0&!
#191
0#
1$
b01 &
b011 Q
b1000 S
b10 m
1o
1y
1&!
#192
0o
0y
0&!
#193
1%
b10 &
b0000000000000000 M
b0000000000000000 ^
1j
b11 m
1o
1u
1x
1y
1"!
1%!
1&!
14!
#194
0o
0x
0y
0%!
0&!
#195
b11 &
b00 m
1o
1x
1y
1%!
1&!
04!
#196
b11 m
0o
0x
0y
0%!
0&!
0A!
#197
1o
1x
1y
1%!
1&!
#198
b00 m
0o
0x
0y
0%!
0&!
b0100000000100000 (!
1A!
#199
1#
0$
0%
b00 &
b0000000000000110 M
b010 Q
b0000000000000110 ^
0j
b01 m
1n
0u
1z
0"!
1&!
#200
0n
0z
0&!
#201
0#
1$
b01 &
b000 Q
b0100 S
b10 m
1o
1y
1&!
#202
0o
0y
0&!
#203
1%
b10 &
b0000000000000000 J
b0000000000000000 [
1g
b11 m
1o
1r
1x
1y
1}
1%!
1&!
14!
#204
0o
0x
0y
0%!
0&!
#205
b11 &
b00 m
1o
1x
1y
1%!
1&!
04!
#206
b11 m
0o
0x
0y
0%!
0&!
0A!
#207
1o
1x
1y
1%!
1&!
#208
b00 m
0o
0x
0y
0%!
0&!
b1010000001111000 (!
1A!
#209
1#
0$
0%
b00 &
b0000000000000011 J
b101 Q
b0000000000000011 [
0g
b01 m
1n
0r
1z
0}
1&!
#210
0n
0z
0&!
#211
0#
1$
b01 &
b1111111111111111 G
b000 Q
b1111 S
1U
b1111111111111111 V
b1111111111111111 W
b1111111111111111 b
b0000000000000000 c
1d
b10 m
1o
1y
1&!
#212
0o
0y
0&!
#213
1%
b10 &
b0000000000000000 M
b0000000000000000 ^
1j
b11 m
1o
1u
1x
1y
1"!
1%!
1&!
14!
#214
0o
0x
0y
0%!
0&!
#215
b11 &
b00 m
1o
1x
1y
1%!
1&!
04!
#216
b11 m
0o
0x
0y
0%!
0&!
0A!
#217
1o
1x
1y
1%!
1&!
#218
b00 m
0o
0x
0y
0%!
0&!
b1011100001001000 (!
1A!
#219
1#
0$
0%
b00 &
b0000000000000110 M
b101 Q
b0000000000000110 ^
0j
b01 m
1n
0u
1z
0"!
1&!
#220
0n
0z
0&!
#221
0#
1$
b01 &
b0000000000000000 G
b110 Q
b1001 S
0U
b0000000000000000 V
b0000000000000000 W
b0000000000000000 b
b1111111111111111 c
0d
b10 m
1o
1y
1&!
#222
0o
0y
0&!
#223
1%
b10 &
b0000000000000000 M
b0000000000000000 ^
1j
b11 m
1o
1u
1x
1y
1"!
1%!
1&!
14!
#224
0o
0x
0y
0%!
0&!
#225
b11 &
b00 m
1o
1x
1y
1%!
1&!
04!
#226
b11 m
0o
0x
0y
0%!
0&!
0A!
#227
1o
1x
1y
1%!
1&!
#228
b00 m
0o
0x
0y
0%!
0&!
b1100000000111000 (!
1A!
#229
1#
0$
0%
b00 &
b0000000000000110 M
b0000000000000110 ^
0j
b01 m
1n
0u
1z
0"!
1&!
#230
0n
0z
0&!
#231
0#
1$
b01 &
b1111111111111111 G
b000 Q
b0111 S
1U
b1111111111111111 V
b1111111111111111 W
b1111111111111111 b
b0000000000000000 c
1d
b10 m
1o
1y
1&!
#232
0o
0y
0&!
#233
1%
b10 &
b0000000000000000 N
b0000000000000000 _
1k
b11 m
1o
1v
1x
1y
1#!
1%!
1&!
14!
#234
0o
0x
0y
0%!
0&!
#235
b11 &
b00 m
1o
1x
1y
1%!
1&!
04!
#236
b11 m
0o
0x
0y
0%!
0&!
0A!
#237
1o
1x
1y
1%!
1&!
#238
b00 m
0o
0x
0y
0%!
0&!
b1010110001111000 (!
1A!
#239
1#
0$
0%
b00 &
b0000000000000111 N
b101 Q
b0000000000000111 _
0k
b01 m
1n
0v
1z
0#!
1&!
#240
0n
0z
0&!
#241
0#
1$
b01 &
b011 Q
b1111 S
b10 m
1o
1y
1&!
#242
0o
0y
0&!
#243
1%
b10 &
b0000000000000000 M
b0000000000000000 ^
1j
b11 m
1o
1u
1x
1y
1"!
1%!
1&!
14!
#244
0o
0x
0y
0%!
0&!
